…
✔ dplyr     1.1.4     ✔ readr     2.1.5
✔ forcats   1.0.0     ✔ stringr   1.5.1
✔ ggplot2   3.5.0     ✔ tibble    3.2.1
✔ lubridate 1.9.3     ✔ tidyr     1.3.1
✔ purrr     1.0.2     
── Conflicts ────────────────────────────────────────── tidyverse_conflicts() ──
✖ purrr::%||%()   masks base::%||%()
✖ dplyr::filter() masks stats::filter()
✖ dplyr::lag()    masks stats::lag()
ℹ Use the conflicted package (<http://conflicted.r-lib.org/>) to force all conflicts to become errors
> library(readxl)
> 
> diogenes_results <- read_excel("./assets/data.xlsx", sheet = "Principal")
> diogenes_results
# A tibble: 9,454 × 18
      ID AUTHOR  WORK  LOCATION TEXT  MV    SELECT CHECK MV_PERSONAL Anot  Vm   
   <dbl> <chr>   <chr> <chr>    <chr> <chr> <chr>  <lgl> <lgl>       <chr> <chr>
 1     2 Aeschi… Agai… 2.11     οὕτω… δοκέω FALSE  FALSE FALSE       <NA>  <NA> 
 2     3 Aeschi… Agai… 79.1     ὡς γ… δοκέω FALSE  FALSE FALSE       <NA>  <NA> 
 3     4 Aeschi… Agai… 145.5    καὶ … δοκέω FALSE  FALSE FALSE       <NA>  <NA> 
 4     5 Aeschi… Agai… 155.4    καὶ … δοκέω FALSE  FALSE FALSE       <NA>  <NA> 
 5     6 Aeschi… Agai… 177.8    εἰ γ… δοκέω FALSE  FALSE FALSE       <NA>  <NA> 
 6     7 Aeschi… Agai… 181.1    πότε… δοκέω FALSE  FALSE FALSE       <NA>  <NA> 
 7     8 Aeschi… Agai… 183.4    οὗτο… δοκέω FALSE  FALSE FALSE       <NA>  <NA> 
 8     9 Aeschi… Agai… 250.1    ἢ οὐ… δοκέω FALSE  FALSE FALSE       <NA>  <NA> 
 9    10 Aeschi… Agai… 4.1      ἀλλά… δοκέω FALSE  FALSE FALSE       <NA>  <NA> 
10    11 Aeschi… Agai… 25.1     καὶ … δοκέω FALSE  FALSE FALSE       <NA>  <NA> 
# ℹ 9,444 more rows
# ℹ 7 more variables: Vinf <chr>, Obj <chr>, Pred <chr>, Attr <lgl>,
#   Attr_B <chr>, Vinf_Cop <lgl>, Column1 <lgl>
…
